ID,Brand,Category,Sub Category,Sub-Sub Category,Wheel Type,Display Name,NUMERIC ID,Length(in cms),Breadth(in cms),Height(in cms),Capacity(in Litres),Size,Color,Hsn Code,Mrp,Standard Consumer Discount,Standard Trader Discount,gstValue,Is Imported?,Dead Weight(in Kgs),Year of Manufacturing,Quantity
1,Safari,Leather and Travel,Luggage and Travel,backpack,none,zippy,NA,46,31,20,28.52,regular,orange,42021290,100,30,30,18,yes,0,2019,1
2,Safari,Leather and Travel,Luggage and Travel,backpack,none,signature,NA,46,31,22,31.372,regular,blue,42021290,100,30,30,18,yes,0,2019,1
3,Safari,Leather and Travel,Luggage and Travel,backpack,none,signature,NA,46,31,22,31.372,regular,black,42021290,100,30,30,18,yes,0,2019,1
4,Safari,Leather and Travel,Luggage and Travel,backpack,none,warfare,NA,46,31,22,31.372,regular,wine,42021290,100,30,30,18,yes,0,2019,12
5,Safari,Leather and Travel,Luggage and Travel,backpack,none,warfare,NA,46,31,22,31.372,regular,teal,42021290,100,30,30,18,yes,0,2019,22
6,Safari,Leather and Travel,Luggage and Travel,backpack,none,travelbug,NA,46,31,22,31.372,regular,navy,42021290,100,30,30,18,yes,0,2019,1
7,Safari,Leather and Travel,Luggage and Travel,backpack,none,travelbug,NA,46,31,22,31.372,regular,blue,42021290,100,30,30,18,yes,0,2019,1
8,Safari,Leather and Travel,Luggage and Travel,backpack,none,boombox,NA,46,31,22,31.372,regular,white,42021290,100,30,30,18,yes,0,2019,1
9,Safari,Leather and Travel,Luggage and Travel,backpack,none,tangram,NA,46,31,22,31.372,regular,red,42021290,100,30,30,18,yes,0,2019,1
10,Safari,Leather and Travel,Luggage and Travel,backpack,none,swipe,NA,46,31,22,31.372,regular,wine,42021290,100,30,30,18,yes,0,2019,1
11,Safari,Leather and Travel,Luggage and Travel,backpack,none,guitar reloded,NA,46,31,22,31.372,regular,green,42021290,100,30,30,18,yes,0,2019,1
12,Safari,Leather and Travel,Luggage and Travel,backpack,none,flipflop,NA,46,31,22,31.372,regular,grey,42021290,100,30,30,18,yes,0,2019,12
13,Safari,Leather and Travel,Luggage and Travel,backpack,none,flipflop,NA,46,31,22,31.372,regular,blue,42021290,100,30,30,18,yes,0,2019,2
14,Safari,Leather and Travel,Luggage and Travel,backpack,none,authentic,NA,46,31,22,31.372,regular,blue,42021290,100,30,30,18,yes,0,2019,2
15,Safari,Leather and Travel,Luggage and Travel,backpack,none,authentic,NA,46,31,22,31.372,regular,green,42021290,100,30,30,18,yes,0,2019,2
16,Safari,Leather and Travel,Luggage and Travel,backpack,none,speed,NA,46,31,22,31.372,regular,teal,42021290,100,30,30,18,yes,0,2019,2
17,Safari,Leather and Travel,Luggage and Travel,backpack,none,yaxis,NA,46,31,22,31.372,regular,red,42021290,100,30,30,18,yes,0,2019,2
18,Safari,Leather and Travel,Luggage and Travel,backpack,none,yaxis,NA,46,31,22,31.372,regular,blue,42021290,100,30,30,18,yes,0,2019,2
19,Safari,Leather and Travel,Luggage and Travel,backpack,none,play,NA,46,31,22,31.372,regular,red,42021290,100,30,30,18,yes,0,2019,2
20,Safari,Leather and Travel,Luggage and Travel,backpack,none,play,NA,46,31,22,31.372,regular,blue,42021290,100,30,30,18,yes,0,2019,2
21,Safari,Leather and Travel,Luggage and Travel,backpack,none,hipster plus,NA,46,31,22,31.372,regular,green,42021290,100,30,30,18,yes,0,2019,15
22,Safari,Leather and Travel,Luggage and Travel,backpack,none,hipster plus,NA,46,31,22,31.372,regular,red,42021290,100,30,30,18,yes,0,2019,3
23,Safari,Leather and Travel,Luggage and Travel,backpack,none,twill,NA,46,31,22,31.372,regular,orange,42021290,100,30,30,18,yes,0,2019,1
24,Safari,Leather and Travel,Luggage and Travel,backpack,none,speckles,NA,46,31,22,31.372,regular,blue,42021290,100,30,30,18,yes,0,2019,1
25,Safari,Leather and Travel,Luggage and Travel,backpack,none,speckles,NA,46,31,22,31.372,regular,black,42021290,100,30,30,18,yes,0,2019,12
26,Safari,Leather and Travel,Luggage and Travel,backpack,none,speckles,NA,46,31,22,31.372,regular,red,42021290,100,30,30,18,yes,0,2019,1
27,Safari,Leather and Travel,Luggage and Travel,backpack,none,athelete,NA,46,31,22,31.372,regular,green,42021290,100,30,30,18,yes,0,2019,1
28,Safari,Leather and Travel,Luggage and Travel,backpack,none,athelete,NA,46,31,22,31.372,regular,wine,42021290,100,30,30,18,yes,0,2019,1
29,Safari,Leather and Travel,Luggage and Travel,backpack,none,constellation,NA,46,31,22,31.372,regular,blue,42021290,100,30,30,18,yes,0,2019,1
30,Safari,Leather and Travel,Luggage and Travel,backpack,none,constellation,NA,46,31,22,31.372,regular,black,42021290,100,30,30,18,yes,0,2019,1
31,Safari,Leather and Travel,Luggage and Travel,backpack,none,marathon,NA,46,31,22,31.372,regular,black,42021290,100,30,30,18,yes,0,2019,1
32,Safari,Leather and Travel,Luggage and Travel,backpack,none,marathon,NA,46,31,22,31.372,regular,khakhi,42021290,100,30,30,18,yes,0,2019,1
33,Safari,Leather and Travel,Luggage and Travel,backpack,none,rail road,NA,46,31,22,31.372,regular,blue,42021290,100,30,30,18,yes,0,2019,1
34,Safari,Leather and Travel,Luggage and Travel,backpack,none,kaleidoscope,NA,46,31,22,31.372,regular,blue,42021290,100,30,30,18,yes,0,2019,12
35,Safari,Leather and Travel,Luggage and Travel,backpack,none,kaleidoscope,NA,46,31,22,31.372,regular,grey,42021290,100,30,30,18,yes,0,2019,12
36,Safari,Leather and Travel,Luggage and Travel,backpack,none,sprint,NA,46,31,22,31.372,regular,grey,42021290,100,30,30,18,yes,0,2019,1
37,Safari,Leather and Travel,Luggage and Travel,backpack,none,sprint,NA,46,31,22,31.372,regular,black,42021290,100,30,30,18,yes,0,2019,1
38,Safari,Leather and Travel,Luggage and Travel,backpack,none,victory,NA,46,31,22,31.372,regular,navy,42021290,100,30,30,18,yes,0,2019,1
39,Safari,Leather and Travel,Luggage and Travel,backpack,none,victory,NA,46,31,22,31.372,regular,grey,42021290,100,30,30,18,yes,0,2019,1
40,Safari,Leather and Travel,Luggage and Travel,backpack,none,stepper,NA,46,31,22,31.372,regular,black,42021290,100,30,30,18,yes,0,2019,1
41,Safari,Leather and Travel,Luggage and Travel,backpack,none,checkmate,NA,46,31,22,31.372,regular,black,42021290,100,30,30,18,yes,0,2019,24
42,Safari,Leather and Travel,Luggage and Travel,backpack,none,checkmate,NA,46,31,22,31.372,regular,blue,42021290,100,30,30,18,yes,0,2019,24
43,Safari,Leather and Travel,Luggage and Travel,backpack,none,target compact,NA,46,31,22,31.372,regular,black,42021290,100,30,30,18,yes,0,2019,1
44,Safari,Leather and Travel,Luggage and Travel,backpack,none,target compact,NA,46,31,22,31.372,regular,grey,42021290,100,30,30,18,yes,0,2019,1
45,Safari,Leather and Travel,Luggage and Travel,backpack,none,origami,NA,46,31,22,31.372,regular,yellow,42021290,100,30,30,18,yes,0,2019,1
46,Safari,Leather and Travel,Luggage and Travel,backpack,none,origami,NA,46,31,22,31.372,regular,blue,42021290,100,30,30,18,yes,0,2019,1
47,Safari,Leather and Travel,Luggage and Travel,backpack,2W,twenty one,NA,46,31,22,31.372,regular,red,42021290,100,30,30,18,yes,0,2019,1
48,Safari,Leather and Travel,Luggage and Travel,duffle trolley,2W,revv,NA,46,31,22,31.372,small,blue,42021290,100,30,30,18,yes,0,2019,1
49,Safari,Leather and Travel,Luggage and Travel,duffle trolley,2W,revv,NA,46,31,22,31.372,small,brown,42021290,100,30,30,18,yes,0,2019,1
50,Safari,Leather and Travel,Luggage and Travel,duffle trolley,2W,revv,NA,46,31,22,31.372,small,maroon,42021290,100,30,30,18,yes,0,2019,1
51,Safari,Leather and Travel,Luggage and Travel,duffle trolley,2W,torch,NA,46,31,22,31.372,small,black,42021290,100,30,30,18,yes,0,2019,1
52,Safari,Leather and Travel,Luggage and Travel,duffle trolley,2W,torch,NA,46,31,22,31.372,small,red,42021290,100,30,30,18,yes,0,2019,1
53,Safari,Leather and Travel,Luggage and Travel,duffle trolley,2W,torch,NA,46,31,22,31.372,small,purple,42021290,100,30,30,18,yes,0,2019,1
54,Safari,Leather and Travel,Luggage and Travel,duffle trolley,2W,rockies,NA,46,31,22,31.372,small,red,42021290,100,30,30,18,yes,0,2019,1
55,Safari,Leather and Travel,Luggage and Travel,duffle trolley,2W,rockies,NA,46,31,22,31.372,small,blue,42021290,100,30,30,18,yes,0,2019,1
56,Safari,Leather and Travel,Luggage and Travel,duffle trolley,2W,rockies,NA,46,31,22,31.372,small,purple,42021290,100,30,30,18,yes,0,2019,1
57,Safari,Leather and Travel,Luggage and Travel,duffle trolley,2W,grid,NA,46,31,22,31.372,small,teal,42021290,100,30,30,18,yes,0,2019,1
58,Safari,Leather and Travel,Luggage and Travel,duffle trolley,2W,infinity,NA,46,31,22,31.372,small,red,42021290,100,30,30,18,yes,0,2019,1
59,Safari,Leather and Travel,Luggage and Travel,duffle trolley,2W,infinity,NA,46,31,22,31.372,small,blue,42021290,100,30,30,18,yes,0,2019,1
60,Safari,Leather and Travel,Luggage and Travel,duffle trolley,2W,revv,NA,46,31,22,31.372,medium,blue,42021290,100,30,30,18,yes,0,2019,1
61,Safari,Leather and Travel,Luggage and Travel,duffle trolley,2W,revv,NA,46,31,22,31.372,medium,brown,42021290,100,30,30,18,yes,0,2019,1
62,Safari,Leather and Travel,Luggage and Travel,duffle trolley,2W,revv,NA,46,31,22,31.372,medium,maroon,42021290,100,30,30,18,yes,0,2019,1
63,Safari,Leather and Travel,Luggage and Travel,duffle trolley,2W,torch,NA,46,31,22,31.372,medium,black,42021290,100,30,30,18,yes,0,2019,1
64,Safari,Leather and Travel,Luggage and Travel,duffle trolley,2W,torch,NA,46,31,22,31.372,medium,red,42021290,100,30,30,18,yes,0,2019,1
65,Safari,Leather and Travel,Luggage and Travel,duffle trolley,2W,torch,NA,46,31,22,31.372,medium,purple,42021290,100,30,30,18,yes,0,2019,1
66,Safari,Leather and Travel,Luggage and Travel,duffle trolley,2W,rockies,NA,46,31,22,31.372,medium,red,42021290,100,30,30,18,yes,0,2019,1
67,Safari,Leather and Travel,Luggage and Travel,duffle trolley,2W,rockies,NA,46,31,22,31.372,medium,blue,42021290,100,30,30,18,yes,0,2019,1
68,Safari,Leather and Travel,Luggage and Travel,duffle trolley,2W,rockies,NA,46,31,22,31.372,medium,purple,42021290,100,30,30,18,yes,0,2019,1
69,Safari,Leather and Travel,Luggage and Travel,duffle trolley,2W,grid,NA,46,31,22,31.372,medium,teal,42021290,100,30,30,18,yes,0,2019,1
70,Safari,Leather and Travel,Luggage and Travel,duffle trolley,2W,infinity,NA,46,31,22,31.372,medium,red,42021290,100,30,30,18,yes,0,2019,1
71,Safari,Leather and Travel,Luggage and Travel,duffle trolley,2W,infinity,NA,46,31,22,31.372,medium,blue,42021290,100,30,30,18,yes,0,2019,1
72,Safari,Leather and Travel,Luggage and Travel,hard luggage trolley,4W,delta,NA,55,40,30,66,small,red,42021290,100,30,30,18,yes,0,2019,1
73,Safari,Leather and Travel,Luggage and Travel,hard luggage trolley,4W,delta,NA,65,45,32,93.6,medium,red,42021290,100,30,30,18,yes,0,2019,1
74,Safari,Leather and Travel,Luggage and Travel,hard luggage trolley,4W,delta,NA,75,52,35,136.5,large,red,42021290,100,30,30,18,yes,0,2019,1
75,Safari,Leather and Travel,Luggage and Travel,hard luggage trolley,4W,delta,NA,55,40,30,66,small,blue,42021290,100,30,30,18,yes,0,2019,1
76,Safari,Leather and Travel,Luggage and Travel,hard luggage trolley,4W,delta,NA,65,52,32,108.16,medium,blue,42021290,100,30,30,18,yes,0,2019,1
77,Safari,Leather and Travel,Luggage and Travel,hard luggage trolley,4W,delta,NA,75,52,35,136.5,large,blue,42021290,100,30,30,18,yes,0,2019,1
78,Safari,Leather and Travel,Luggage and Travel,hard luggage trolley,4W,calm,NA,65,45,35,102.375,medium,red,42021290,100,30,30,18,yes,0,2019,1
79,Safari,Leather and Travel,Luggage and Travel,hard luggage trolley,4W,vivid,NA,55,40,30,66,small,red,42021290,100,30,30,18,yes,0,2019,1
80,Safari,Leather and Travel,Luggage and Travel,hard luggage trolley,4W,vivid,NA,65,45,32,93.6,medium,red,42021290,100,30,30,18,yes,0,2019,1
81,Safari,Leather and Travel,Luggage and Travel,hard luggage trolley,4W,vivid,NA,75,52,35,136.5,large,red,42021290,100,30,30,18,yes,0,2019,1
82,Safari,Leather and Travel,Luggage and Travel,hard luggage trolley,4W,flo,NA,55,40,30,66,small,purple,42021290,100,30,30,18,yes,0,2019,1
83,Safari,Leather and Travel,Luggage and Travel,hard luggage trolley,4W,flo,NA,65,45,32,93.6,medium,purple,42021290,100,30,30,18,yes,0,2019,1
84,Safari,Leather and Travel,Luggage and Travel,hard luggage trolley,4W,flo,NA,75,52,35,136.5,large,purple,42021290,100,30,30,18,yes,0,2019,1
85,Safari,Leather and Travel,Luggage and Travel,hard luggage trolley,4W,flo,NA,55,40,30,66,small,blue,42021290,100,30,30,18,yes,0,2019,1
86,Safari,Leather and Travel,Luggage and Travel,hard luggage trolley,4W,impulse,NA,67,45,35,105.525,medium,blue,42021290,100,30,30,18,yes,0,2019,1
87,Safari,Leather and Travel,Luggage and Travel,hard luggage trolley,4W,impulse,NA,67,45,35,105.525,medium,red,42021290,100,30,30,18,yes,0,2019,1
88,Safari,Leather and Travel,Luggage and Travel,soft luggage trolley,4W,trail,NA,55,40,30,66,small,red,42021290,100,30,30,18,yes,0,2019,1
89,Safari,Leather and Travel,Luggage and Travel,soft luggage trolley,4W,trail,NA,55,40,30,66,small,brown,42021290,100,30,30,18,yes,0,2019,1
90,Safari,Leather and Travel,Luggage and Travel,soft luggage trolley,4W,nifty,NA,58,42,35,85.26,small,red,42021290,100,30,30,18,yes,0,2019,1
91,Safari,Leather and Travel,Luggage and Travel,soft luggage trolley,4W,nifty,NA,58,42,35,85.26,small,brown,42021290,100,30,30,18,yes,0,2019,1
92,Safari,Leather and Travel,Luggage and Travel,soft luggage trolley,4W,nifty,NA,67,50,40,134,medium,brown,42021290,100,30,30,18,yes,0,2019,1
93,Safari,Leather and Travel,Luggage and Travel,soft luggage trolley,4W,nifty,NA,78,53,40,165.36,large,red,42021290,100,30,30,18,yes,0,2019,1
94,Safari,Leather and Travel,Luggage and Travel,soft luggage trolley,4W,pixel,NA,66,45,38,112.86,medium,red,42021290,100,30,30,18,yes,0,2019,1
95,Safari,Leather and Travel,Luggage and Travel,soft luggage trolley,4W,pixel,NA,78,45,38,133.38,medium,grey,42021290,100,30,30,18,yes,0,2019,1
96,Safari,Leather and Travel,Luggage and Travel,soft luggage trolley,4W,pixel,NA,78,52,40,162.24,large,grey,42021290,100,30,30,18,yes,0,2019,1
97,Safari,Leather and Travel,Luggage and Travel,soft luggage trolley,4W,woolfer,NA,66,45,35,103.95,medium,black,42021290,100,30,30,18,yes,0,2019,1
98,Safari,Leather and Travel,Luggage and Travel,soft luggage trolley,4W,woolfer,NA,56,40,32,71.68,small,black,42021290,100,30,30,18,yes,0,2019,1
99,Safari,Leather and Travel,Luggage and Travel,soft luggage trolley,4W,woolfer,NA,56,40,32,71.68,small,red,42021290,100,30,30,18,yes,0,2019,1
100,Safari,Leather and Travel,Luggage and Travel,soft luggage trolley,4W,tango,NA,78,52,40,162.24,large,red,42021290,100,30,30,18,yes,0,2019,1
101,Safari,Leather and Travel,Luggage and Travel,soft luggage trolley,4W,tango,NA,78,52,40,162.24,large,purple,42021290,100,30,30,18,yes,0,2019,1
102,Safari,Leather and Travel,Luggage and Travel,soft luggage trolley,4W,tango,NA,56,40,30,67.2,small,purple,42021290,100,30,30,18,yes,0,2019,1
103,Safari,Leather and Travel,Luggage and Travel,soft luggage trolley,4W,troy,NA,67,45,35,105.525,medium,red,42021290,100,30,30,18,yes,0,2019,1
104,Safari,Leather and Travel,Luggage and Travel,soft luggage trolley,4W,troy,NA,78,53,42,173.628,large,green,42021290,100,30,30,18,yes,0,2019,1
105,Safari,Leather and Travel,Luggage and Travel,soft luggage trolley,4W,royal,NA,65,42,35,95.55,medium,red,42021290,100,30,30,18,yes,0,2019,1
106,Safari,Leather and Travel,Luggage and Travel,soft luggage trolley,4W,royal,NA,65,42,35,95.55,medium,purple,42021290,100,30,30,18,yes,0,2019,1
107,Safari,Leather and Travel,Luggage and Travel,soft luggage trolley,4W,royal,NA,77,52,42,168.168,large,red,42021290,100,30,30,18,yes,0,2019,1
108,Safari,Leather and Travel,Luggage and Travel,soft luggage trolley,4W,maxima,NA,75,52,42,163.8,large,black,42021290,100,30,30,18,yes,0,2019,1
109,Safari,Leather and Travel,Luggage and Travel,soft luggage trolley,4W,maxima,NA,55,40,30,66,small,black,42021290,100,30,30,18,yes,0,2019,1
110,Safari,Leather and Travel,Luggage and Travel,soft luggage trolley,4W,clyde,NA,75,52,45,175.5,large,purple,42021290,100,30,30,18,yes,0,2019,1
111,Safari,Leather and Travel,Luggage and Travel,soft luggage trolley,4W,clyde,NA,55,40,30,66,small,purple,42021290,100,30,30,18,yes,0,2019,1
112,Safari,Leather and Travel,Luggage and Travel,soft luggage trolley,4W,hush,NA,78,52,42,170.352,large,blue,42021290,100,30,30,18,yes,0,2019,1
113,Safari,Leather and Travel,Luggage and Travel,soft luggage trolley,2W,concave,NA,65,45,35,102.375,medium,purple,42021290,100,30,30,18,yes,0,2019,1
114,Safari,Leather and Travel,Luggage and Travel,soft luggage trolley,2W,concave,NA,55,40,32,70.4,small,purple,42021290,100,30,30,18,yes,0,2019,1
115,Safari,Leather and Travel,Luggage and Travel,soft luggage trolley,2W,slide,NA,55,35,30,57.75,small,purple,42021290,100,30,30,18,yes,0,2019,1
116,Safari,Leather and Travel,Luggage and Travel,soft luggage trolley,2W,rail,NA,77,45,38,131.67,large,red,42021290,100,30,30,18,yes,0,2019,1
117,fastrack,Leather and Travel,Luggage and Travel,backpack,NA,NA,a0636nbl01,46,31,22,31.372,regular,red,42021290,100,30,30,18,yes,0,2019,1
118,fastrack,Leather and Travel,Luggage and Travel,backpack,NA,NA,a0637nbl01,46,31,22,31.372,regular,red,42021290,100,30,30,18,yes,0,2019,1
119,fastrack,Leather and Travel,Luggage and Travel,backpack,NA,NA,a0648nbk01,46,31,22,31.372,regular,red,42021290,100,30,30,18,yes,0,2019,1
120,fastrack,Leather and Travel,Luggage and Travel,backpack,NA,NA,a0641nbl01,46,31,22,31.372,regular,red,42021290,100,30,30,18,yes,0,2019,1
121,fastrack,Leather and Travel,Luggage and Travel,backpack,NA,NA,a0712nbl01,46,31,22,31.372,regular,red,42021290,100,30,30,18,yes,0,2019,1
122,fastrack,Leather and Travel,Luggage and Travel,backpack,NA,NA,a0697nbl01,46,31,22,31.372,regular,red,42021290,100,30,30,18,yes,0,2019,1
123,fastrack,Leather and Travel,Luggage and Travel,backpack,NA,NA,a0652nrd01,46,31,22,31.372,regular,red,42021290,100,30,30,18,yes,0,2019,1
124,fastrack,Leather and Travel,Luggage and Travel,backpack,NA,NA,a0710nbk01,46,31,22,31.372,regular,red,42021290,100,30,30,18,yes,0,2019,1
125,fastrack,Leather and Travel,Luggage and Travel,backpack,NA,NA,a0694nbk01,46,31,22,31.372,regular,red,42021290,100,30,30,18,yes,0,2019,1
126,fastrack,Leather and Travel,Luggage and Travel,backpack,NA,NA,a0706nbl01,46,31,22,31.372,regular,red,42021290,100,30,30,18,yes,0,2019,1
127,fastrack,Leather and Travel,Luggage and Travel,backpack,NA,NA,a0666nyl01,46,31,22,31.372,regular,red,42021290,100,30,30,18,yes,0,2019,1
128,fastrack,Leather and Travel,Luggage and Travel,backpack,NA,NA,a0666nbl01,46,31,22,31.372,regular,red,42021290,100,30,30,18,yes,0,2019,1
129,fastrack,Leather and Travel,Luggage and Travel,backpack,NA,NA,a0686ntl01,46,31,22,31.372,regular,red,42021290,100,30,30,18,yes,0,2019,1
130,fastrack,Leather and Travel,Luggage and Travel,backpack,NA,NA,a0686ngy01,46,31,22,31.372,regular,red,42021290,100,30,30,18,yes,0,2019,1
131,fastrack,Leather and Travel,Luggage and Travel,backpack,NA,NA,a0697ngy01,46,31,22,31.372,regular,red,42021290,100,30,30,18,yes,0,2019,1
132,fastrack,Leather and Travel,Luggage and Travel,backpack,NA,NA,a0676nbl01,46,31,22,31.372,regular,red,42021290,100,30,30,18,yes,0,2019,1
133,fastrack,Leather and Travel,Luggage and Travel,backpack,NA,NA,a0648nbl01,46,31,22,31.372,regular,red,42021290,100,30,30,18,yes,0,2019,1
134,fastrack,Leather and Travel,Luggage and Travel,backpack,NA,NA,a0694nrd01,46,31,22,31.372,regular,red,42021290,100,30,30,18,yes,0,2019,1
135,fastrack,Leather and Travel,Luggage and Travel,backpack,NA,NA,a0679ngr01,46,31,22,31.372,regular,red,42021290,100,30,30,18,yes,0,2019,1
136,fastrack,Leather and Travel,Luggage and Travel,backpack,NA,NA,a0710nbk01,46,31,22,31.372,regular,red,42021290,100,30,30,18,yes,0,2019,1
137,fastrack,Leather and Travel,Luggage and Travel,backpack,NA,NA,a0631nyl02,46,31,22,31.372,regular,red,42021290,100,30,30,18,yes,0,2019,1
138,fastrack,Leather and Travel,Luggage and Travel,backpack,NA,NA,a0637nblk01,46,31,22,31.372,regular,red,42021290,100,30,30,18,yes,0,2019,1
139,fastrack,Leather and Travel,Luggage and Travel,backpack,NA,NA,a0697ngr01,46,31,22,31.372,regular,red,42021290,100,30,30,18,yes,0,2019,1
140,fastrack,Leather and Travel,Luggage and Travel,backpack,NA,NA,a0711nrd01,46,31,22,31.372,regular,red,42021290,100,30,30,18,yes,0,2019,1
141,fastrack,Leather and Travel,Luggage and Travel,backpack,NA,NA,a0641nbk01,46,31,22,31.372,regular,red,42021290,100,30,30,18,yes,0,2019,1
142,fastrack,Leather and Travel,Luggage and Travel,backpack,NA,NA,a0652nbl01,46,31,22,31.372,regular,red,42021290,100,30,30,18,yes,0,2019,1
143,fastrack,Leather and Travel,Luggage and Travel,backpack,NA,NA,a0711nbk01,46,31,22,31.372,regular,red,42021290,100,30,30,18,yes,0,2019,1
144,fastrack,Leather and Travel,Luggage and Travel,backpack,NA,NA,a0637nbk01,46,31,22,31.372,regular,red,42021290,100,30,30,18,yes,0,2019,1
145,fastrack,Leather and Travel,Luggage and Travel,backpack,NA,NA,a0709nbk01,46,31,22,31.372,regular,red,42021290,100,30,30,18,yes,0,2019,1
146,fastrack,Leather and Travel,Luggage and Travel,backpack,NA,NA,ac003nbk01ab,46,31,22,31.372,regular,red,42021290,100,30,30,18,yes,0,2019,1
147,fastrack,Leather and Travel,Luggage and Travel,backpack,NA,NA,a0645nbl01,46,31,22,31.372,regular,red,42021290,100,30,30,18,yes,0,2019,1
148,fastrack,Leather and Travel,Luggage and Travel,backpack,NA,NA,ac034nbk02,46,31,22,31.372,regular,red,42021290,100,30,30,18,yes,0,2019,1
149,fastrack,Leather and Travel,Luggage and Travel,backpack,NA,NA,a0631nbl02,46,31,22,31.372,regular,red,42021290,100,30,30,18,yes,0,2019,1
150,wiki,Leather and Travel,Luggage and Travel,backpack,NA,spray 4,NA,46,31,22,31.372,regular,black,42021290,1599,30,30,18,yes,0,2019,1
151,wiki,Leather and Travel,Luggage and Travel,backpack,NA,ombre 5,NA,46,31,22,31.372,regular,black,42021290,1699,30,30,18,yes,0,2019,1
152,wiki,Leather and Travel,Luggage and Travel,backpack,NA,aztec 5,NA,46,31,22,31.372,regular,red,42021290,1699,30,30,18,yes,0,2019,1
153,wildcraft,Leather and Travel,Luggage and Travel,backpack,NA,typo 3,NA,46,31,22,31.372,regular,red,42021290,1599,30,30,18,yes,0,2019,1
154,wildcraft,Leather and Travel,Luggage and Travel,backpack,NA,typo 3,NA,46,31,22,31.372,regular,blue,42021290,1599,30,30,18,yes,0,2019,1
155,wildcraft,Leather and Travel,Luggage and Travel,backpack,NA,lines 6,NA,46,31,22,31.372,regular,red,42021290,1899,30,30,18,yes,0,2019,1
156,wiki,Leather and Travel,Luggage and Travel,backpack,NA,element 3,NA,46,31,22,31.372,regular,orange,42021290,1249,30,30,18,yes,0,2019,1
157,wildcraft,Leather and Travel,Luggage and Travel,backpack,NA,ace 2,NA,46,31,22,31.372,regular,blue,42021290,1649,30,30,18,yes,0,2019,1
158,wildcraft,Leather and Travel,Luggage and Travel,backpack,NA,verge,NA,46,31,22,31.372,45L,black,42021290,2599,30,30,18,yes,0,2019,1
159,wildcraft,Leather and Travel,Luggage and Travel,backpack,NA,streak 2,NA,46,31,22,31.372,regular,blue,42021290,1399,30,30,18,yes,0,2019,1
160,wiki,Leather and Travel,Luggage and Travel,backpack,NA,beta,NA,46,31,22,31.372,regular,red,42021290,999,30,30,18,yes,0,2019,1
161,wiki,Leather and Travel,Luggage and Travel,backpack,NA,streak 2,NA,46,31,22,31.372,regular,blue,42021290,1399,30,30,18,yes,0,2019,1
162,wiki,Leather and Travel,Luggage and Travel,backpack,NA,ombre1,NA,46,31,22,31.372,regular,green,42021290,1099,30,30,18,yes,0,2019,1
163,wiki,Leather and Travel,Luggage and Travel,backpack,NA,n1 spray,NA,46,31,22,31.372,regular,pink,42021290,1199,30,30,18,yes,0,2019,1
164,wiki,Leather and Travel,Luggage and Travel,backpack,NA,n1 ombre,NA,46,31,22,31.372,regular,black,42021290,1199,30,30,18,yes,0,2019,1
165,wiki,Leather and Travel,Luggage and Travel,backpack,NA,n1 ombre,NA,46,31,22,31.372,regular,red,42021290,1199,30,30,18,yes,0,2019,1
166,wiki,Leather and Travel,Luggage and Travel,backpack,NA,ombre 1,NA,46,31,22,31.372,regular,blue,42021290,1099,30,30,18,yes,0,2019,1
167,wiki,Leather and Travel,Luggage and Travel,backpack,NA,spray 2,NA,46,31,22,31.372,regular,red,42021290,1299,30,30,18,yes,0,2019,1
168,wildcraft,Leather and Travel,Luggage and Travel,backpack,NA,avya,NA,46,31,22,31.372,regular,black,42021290,2249,30,30,18,yes,0,2019,1
169,wiki,Leather and Travel,Luggage and Travel,backpack,NA,spray 4,NA,46,31,22,31.372,regular,pink,42021290,1599,30,30,18,yes,0,2019,1
170,wiki,Leather and Travel,Luggage and Travel,backpack,NA,bricks 3,NA,46,31,22,31.372,regular,pink,42021290,1199,30,30,18,yes,0,2019,1
171,wiki,Leather and Travel,Luggage and Travel,backpack,NA,nature 2,NA,46,31,22,31.372,regular,blue,42021290,1299,30,30,18,yes,0,2019,1
172,wiki,Leather and Travel,Luggage and Travel,backpack,NA,ombre 4,NA,46,31,22,31.372,regular,green,42021290,1599,30,30,18,yes,0,2019,1
173,wiki,Leather and Travel,Luggage and Travel,backpack,NA,spray 1,NA,46,31,22,31.372,regular,black,42021290,1099,30,30,18,yes,0,2019,1
174,wiki,Leather and Travel,Luggage and Travel,backpack,NA,character 6,NA,46,31,22,31.372,regular,navy,42021290,1899,30,30,18,yes,0,2019,1
175,wiki,Leather and Travel,Luggage and Travel,backpack,NA,future 1,NA,46,31,22,31.372,regular,green,42021290,1199,30,30,18,yes,0,2019,1
176,wildcraft,Leather and Travel,Luggage and Travel,backpack,NA,cracks 2,NA,46,31,22,31.372,regular,black,42021290,1499,30,30,18,yes,0,2019,1
177,wildcraft,Leather and Travel,Luggage and Travel,backpack,NA,cracks 4,NA,46,31,22,31.372,regular,red,42021290,1699,30,30,18,yes,0,2019,1
178,wildcraft,Leather and Travel,Luggage and Travel,backpack,NA,cracks 4,NA,46,31,22,31.372,regular,violet,42021290,1699,30,30,18,yes,0,2019,1
179,wiki,Leather and Travel,Luggage and Travel,backpack,NA,chips 1,NA,46,31,22,31.372,regular,blue,42021290,1199,30,30,18,yes,0,2019,1
180,wildcraft,Leather and Travel,Luggage and Travel,backpack,NA,solid 4,NA,46,31,22,31.372,regular,black,42021290,1699,30,30,18,yes,0,2019,1
181,wildcraft,Leather and Travel,Luggage and Travel,backpack,NA,cracks 5,NA,46,31,22,31.372,regular,blue,42021290,1899,30,30,18,yes,0,2019,1
182,wildcraft,Leather and Travel,Luggage and Travel,backpack,NA,solid 2,NA,46,31,22,31.372,regular,black,42021290,1499,30,30,18,yes,0,2019,1
183,wildcraft,Leather and Travel,Luggage and Travel,backpack,NA,solid 2,NA,46,31,22,31.372,regular,navy,42021290,1499,30,30,18,yes,0,2019,1
184,wildcraft,Leather and Travel,Luggage and Travel,backpack,NA,vite,NA,46,31,22,31.372,regular,yellow,42021290,1699,30,30,18,yes,0,2019,1
185,wildcraft,Leather and Travel,Luggage and Travel,backpack,NA,broken camo 5,NA,46,31,22,31.372,regular,grey,42021290,1899,30,30,18,yes,0,2019,1
186,wiki,Leather and Travel,Luggage and Travel,backpack,NA,character 3,NA,46,31,22,31.372,regular,black,42021290,1699,30,30,18,yes,0,2019,1
187,wiki,Leather and Travel,Luggage and Travel,backpack,NA,98 6,NA,46,31,22,31.372,regular,blue,42021290,1999,30,30,18,yes,0,2019,1
188,wiki,Leather and Travel,Luggage and Travel,backpack,NA,cracks 5,NA,46,31,22,31.372,regular,black,42021290,1899,30,30,18,yes,0,2019,1
189,wiki,Leather and Travel,Luggage and Travel,backpack,NA,zebra 6,NA,46,31,22,31.372,regular,grey,42021290,1999,30,30,18,yes,0,2019,1
190,wildcraft,Leather and Travel,Luggage and Travel,backpack,NA,vite,NA,46,31,22,31.372,regular,olive,42021290,1699,30,30,18,yes,0,2019,1
191,wildcraft,Leather and Travel,Luggage and Travel,backpack,NA,text grip black 6,NA,46,31,22,31.372,regular,black,42021290,1999,30,30,18,yes,0,2019,1
192,wildcraft,Leather and Travel,Luggage and Travel,backpack,NA,extreme 3,NA,46,31,22,31.372,regular,orange,42021290,1699,30,30,18,yes,0,2019,1
193,wildcraft,Leather and Travel,Luggage and Travel,backpack,NA,cracks 1,NA,46,31,22,31.372,regular,red,42021290,1299,30,30,18,yes,0,2019,1
194,wiki,Leather and Travel,Luggage and Travel,backpack,NA,future 1,NA,46,31,22,31.372,regular,navy,42021290,1199,30,30,18,yes,0,2019,1
195,wildcraft,Leather and Travel,Luggage and Travel,backpack,NA,solid 1,NA,46,31,22,31.372,regular,pink,42021290,1299,30,30,18,yes,0,2019,1
196,wildcraft,Leather and Travel,Luggage and Travel,backpack,NA,broken 3,NA,46,31,22,31.372,regular,mel_blac,42021290,1699,30,30,18,yes,0,2019,1
197,wildcraft,Leather and Travel,Luggage and Travel,backpack,NA,cracks 2,NA,46,31,22,31.372,regular,violet,42021290,1499,30,30,18,yes,0,2019,1
198,wildcraft,Leather and Travel,Luggage and Travel,backpack,NA,cracks 2,NA,46,31,22,31.372,regular,blue,42021290,1499,30,30,18,yes,0,2019,1
199,wildcraft,Leather and Travel,Luggage and Travel,backpack,NA,extreme 3,NA,46,31,22,31.372,regular,green,42021290,1699,30,30,18,yes,0,2019,1
200,wiki,Leather and Travel,Luggage and Travel,backpack,NA,jacquard 2,NA,46,31,22,31.372,regular,pink,42021290,1399,30,30,18,yes,0,2019,1
201,wildcraft,Leather and Travel,Luggage and Travel,backpack,NA,solid 5,NA,46,31,22,31.372,regular,black,42021290,1899,30,30,18,yes,0,2019,1
202,wildcraft,Leather and Travel,Luggage and Travel,backpack,NA,broken camo 2,NA,46,31,22,31.372,regular,khaki,42021290,1499,30,30,18,yes,0,2019,1
203,wiki,Leather and Travel,Luggage and Travel,backpack,NA,future 8,NA,46,31,22,31.372,regular,navy,42021290,2199,30,30,18,yes,0,2019,1
204,wiki,Leather and Travel,Luggage and Travel,backpack,NA,jacquard 8,NA,46,31,22,31.372,regular,blue,42021290,2199,30,30,18,yes,0,2019,1
205,wiki,Leather and Travel,Luggage and Travel,backpack,NA,hail badge,NA,46,31,22,31.372,regular,black,42021290,1799,30,30,18,yes,0,2019,1
206,wiki,Leather and Travel,Luggage and Travel,backpack,NA,jacquard 5,NA,46,31,22,31.372,regular,pink,42021290,1749,30,30,18,yes,0,2019,1
207,wiki,Leather and Travel,Luggage and Travel,backpack,NA,future 6,NA,46,31,22,31.372,regular,green,42021290,1899,30,30,18,yes,0,2019,1
208,wiki,Leather and Travel,Luggage and Travel,backpack,NA,jacquard 6,NA,46,31,22,31.372,regular,blue,42021290,1899,30,30,18,yes,0,2019,1
209,wiki,Leather and Travel,Luggage and Travel,backpack,NA,hail badge,NA,46,31,22,31.372,regular,grey,42021290,1799,30,30,18,yes,0,2019,1
210,wiki,Leather and Travel,Luggage and Travel,backpack,NA,music 7,NA,46,31,22,31.372,regular,blue,42021290,1999,30,30,18,yes,0,2019,1
211,wiki,Leather and Travel,Luggage and Travel,backpack,NA,girl 2,NA,46,31,22,31.372,regular,black,42021290,2099,30,30,18,yes,0,2019,1
212,wiki,Leather and Travel,Luggage and Travel,backpack,NA,jacquard 5,NA,46,31,22,31.372,regular,red,42021290,1749,30,30,18,yes,0,2019,1
213,wiki,Leather and Travel,Luggage and Travel,backpack,NA,future 7,NA,46,31,22,31.372,regular,pink,42021290,1999,30,30,18,yes,0,2019,1
214,wiki,Leather and Travel,Luggage and Travel,backpack,NA,girl 1 badge,NA,46,31,22,31.372,regular,green,42021290,1699,30,30,18,yes,0,2019,1
215,wiki,Leather and Travel,Luggage and Travel,backpack,NA,girl 1,NA,46,31,22,31.372,regular,black,42021290,1699,30,30,18,yes,0,2019,1
216,wiki,Leather and Travel,Luggage and Travel,backpack,NA,frost badge,NA,46,31,22,31.372,regular,black,42021290,2099,30,30,18,yes,0,2019,1
217,wiki,Leather and Travel,Luggage and Travel,backpack,NA,girl 2,NA,46,31,22,31.372,regular,pink,42021290,2099,30,30,18,yes,0,2019,1
218,wiki,Leather and Travel,Luggage and Travel,backpack,NA,chips 2,NA,46,31,22,31.372,regular,black,42021290,1399,30,30,18,yes,0,2019,1
219,wiki,Leather and Travel,Luggage and Travel,backpack,NA,jacquard 1,NA,46,31,22,31.372,regular,black,42021290,1199,30,30,18,yes,0,2019,1
220,wildcraft,Leather and Travel,Luggage and Travel,backpack,NA,solid 1,NA,46,31,22,31.372,regular,navy,42021290,1299,30,30,18,yes,0,2019,1
221,wildcraft,Leather and Travel,Luggage and Travel,backpack,NA,solid 1,NA,46,31,22,31.372,regular,black,42021290,1299,30,30,18,yes,0,2019,1
222,wildcraft,Leather and Travel,Luggage and Travel,backpack,NA,broken stripes 3,NA,46,31,22,31.372,regular,mel_blu,42021290,1699,30,30,18,yes,0,2019,1
223,wiki,Leather and Travel,Luggage and Travel,backpack,NA,chips 8,NA,46,31,22,31.372,regular,black,42021290,2199,30,30,18,yes,0,2019,1
224,wildcraft,Leather and Travel,Luggage and Travel,backpack,NA,solid 2,NA,46,31,22,31.372,regular,grey,42021290,1499,30,30,18,yes,0,2019,1
225,wiki,Leather and Travel,Luggage and Travel,backpack,NA,jacquard n2,NA,46,31,22,31.372,regular,blu_jqd,42021290,1249,30,30,18,yes,0,2019,3
226,wiki,Leather and Travel,Luggage and Travel,backpack,NA,chips n2,NA,46,31,22,31.372,regular,blue,42021290,1249,30,30,18,yes,0,2019,3
227,wiki,Leather and Travel,Luggage and Travel,backpack,NA,future n2,NA,46,31,22,31.372,regular,navy,42021290,1249,30,30,18,yes,0,2019,4
228,wiki,Leather and Travel,Luggage and Travel,backpack,NA,jacquard n2,NA,46,31,22,31.372,regular,red,42021290,1249,30,30,18,yes,0,2019,2
229,wiki,Leather and Travel,Luggage and Travel,backpack,NA,jacquard n2,NA,46,31,22,31.372,regular,blk_jqd,42021290,1249,30,30,18,yes,0,2019,3
230,wildcraft,Leather and Travel,Luggage and Travel,backpack,NA,6 98,NA,46,31,22,31.372,regular,black,42021290,1999,30,30,18,yes,0,2019,1
231,wiki,Leather and Travel,Luggage and Travel,backpack,NA,chips 2,NA,46,31,22,31.372,regular,blue,42021290,1399,30,30,18,yes,0,2019,2
232,wiki,Leather and Travel,Luggage and Travel,backpack,NA,drizzle badge,NA,46,31,22,31.372,regular,pink,42021290,2599,30,30,18,yes,0,2019,2
233,wiki,Leather and Travel,Luggage and Travel,backpack,NA,jacquard 2,NA,46,31,22,31.372,regular,blue,42021290,1399,30,30,18,yes,0,2019,2
234,wiki,Leather and Travel,Luggage and Travel,backpack,NA,jacquard 3,NA,46,31,22,31.372,regular,green,42021290,1699,30,30,18,yes,0,2019,1
235,wiki,Leather and Travel,Luggage and Travel,backpack,NA,jacquard 7,NA,46,31,22,31.372,regular,black,42021290,1999,30,30,18,yes,0,2019,1
236,wiki,Leather and Travel,Luggage and Travel,backpack,NA,music 7,NA,46,31,22,31.372,regular,black,42021290,1999,30,30,18,yes,0,2019,1
237,wiki,Leather and Travel,Luggage and Travel,backpack,NA,chips 5,NA,46,31,22,31.372,regular,blue,42021290,1749,30,30,18,yes,0,2019,1
238,wiki,Leather and Travel,Luggage and Travel,backpack,NA,jacquard 7,NA,46,31,22,31.372,regular,red,42021290,1999,30,30,18,yes,0,2019,1
239,wiki,Leather and Travel,Luggage and Travel,backpack,NA,chips 4,NA,46,31,22,31.372,regular,grey,42021290,1649,30,30,18,yes,0,2019,1
240,wiki,Leather and Travel,Luggage and Travel,backpack,NA,chips 4,NA,46,31,22,31.372,regular,black,42021290,1649,30,30,18,yes,0,2019,1
241,wiki,Leather and Travel,Luggage and Travel,backpack,NA,jacquard 4,NA,46,31,22,31.372,regular,blue,42021290,1649,30,30,18,yes,0,2019,1
242,wiki,Leather and Travel,Luggage and Travel,backpack,NA,jacquard 5,NA,46,31,22,31.372,regular,black,42021290,1749,30,30,18,yes,0,2019,1
243,fastrack,Leather and Travel,Luggage and Travel,backpack,NA,LANCER,A0738NRD01,46,31,22,31.372,regular,red,42021290,2095,30,30,18,yes,0,2019,1
244,fastrack,Leather and Travel,Luggage and Travel,backpack,NA,LANCER,A0738NBL01,46,31,22,31.372,regular,blue,42021290,2095,30,30,18,yes,0,2019,1
245,fastrack,Leather and Travel,Luggage and Travel,backpack,NA,LANCER,A0738NBK01,46,31,22,31.372,regular,black,42021290,2095,30,30,18,yes,0,2019,1
246,fastrack,Leather and Travel,Luggage and Travel,backpack,NA,ZIGZAG,A0749NGY01,46,31,22,31.372,regular,blue,42021290,1645,30,30,18,yes,0,2019,1
247,fastrack,Leather and Travel,Luggage and Travel,backpack,NA,ZIGZAG,A0749NBL01,46,31,22,31.372,regular,blue,42021290,1645,30,30,18,yes,0,2019,1
248,fastrack,Leather and Travel,Luggage and Travel,backpack,NA,CLIMBER,A0740NBL01,46,31,22,31.372,regular,blue,42021290,1745,30,30,18,yes,0,2019,1
249,fastrack,Leather and Travel,Luggage and Travel,backpack,NA,CLIMBER,A0740NOL01,46,31,22,31.372,regular,olive,42021290,1745,30,30,18,yes,0,2019,1
250,fastrack,Leather and Travel,Luggage and Travel,backpack,NA,CLIMBER,A0740NOR01,46,31,22,31.372,regular,orange,42021290,1745,30,30,18,yes,0,2019,1
251,fastrack,Leather and Travel,Luggage and Travel,backpack,NA,BLOSSOM,A0746NBL01,46,31,22,31.372,regular,blue,42021290,1645,30,30,18,yes,0,2019,1
252,fastrack,Leather and Travel,Luggage and Travel,backpack,NA,BLOSSOM,A0746NGY01,46,31,22,31.372,regular,grey,42021290,1645,30,30,18,yes,0,2019,1
253,fastrack,Leather and Travel,Luggage and Travel,backpack,NA,BLOSSOM,A0746NBK01,46,31,22,31.372,regular,black,42021290,1645,30,30,18,yes,0,2019,1
254,fastrack,Leather and Travel,Luggage and Travel,backpack,NA,OFF BEAT,A0753NBK01,46,31,22,31.372,regular,black,42021290,2245,30,30,18,yes,0,2019,1
255,fastrack,Leather and Travel,Luggage and Travel,backpack,NA,OFF BEAT,A0753NOR01,46,31,22,31.372,regular,orange,42021290,2245,30,30,18,yes,0,2019,1
256,fastrack,Leather and Travel,Luggage and Travel,backpack,NA,SKANDY,A0745NBL01,46,31,22,31.372,regular,blue,42021290,1245,30,30,18,yes,0,2019,1
257,fastrack,Leather and Travel,Luggage and Travel,backpack,NA,SKANDY,A0745NRD01,46,31,22,31.372,regular,red,42021290,1245,30,30,18,yes,0,2019,1
258,fastrack,Leather and Travel,Luggage and Travel,backpack,NA,SKANDY,A0745NGY01,46,31,22,31.372,regular,grey,42021290,1245,30,30,18,yes,0,2019,1
259,fastrack,Leather and Travel,Luggage and Travel,backpack,NA,BASICS,A0742NGY01,46,31,22,31.372,regular,grey,42021290,1095,30,30,18,yes,0,2019,1
260,fastrack,Leather and Travel,Luggage and Travel,backpack,NA,BASICS,A0742NBL01,46,31,22,31.372,regular,blue,42021290,1095,30,30,18,yes,0,2019,1
261,fastrack,Leather and Travel,Luggage and Travel,backpack,NA,BASICS,A0742NBK01,46,31,22,31.372,regular,black,42021290,1095,30,30,18,yes,0,2019,1
262,fastrack,Leather and Travel,Luggage and Travel,backpack,NA,WAVE,A0734NRD01,46,31,22,31.372,regular,red,42021290,1495,30,30,18,yes,0,2019,1
263,fastrack,Leather and Travel,Luggage and Travel,backpack,NA,WAVE,A0734NGY01,46,31,22,31.372,regular,grey,42021290,1495,30,30,18,yes,0,2019,1
264,fastrack,Leather and Travel,Luggage and Travel,backpack,NA,WAVE,A0734NBL01,46,31,22,31.372,regular,blue,42021290,1495,30,30,18,yes,0,2019,1
265,fastrack,Leather and Travel,Luggage and Travel,backpack,NA,ALPHABET,A0741NBL01,46,31,22,31.372,regular,blue,42021290,1645,30,30,18,yes,0,2019,1
266,fastrack,Leather and Travel,Luggage and Travel,backpack,NA,ALPHABET,A0741NGY01,46,31,22,31.372,regular,grey,42021290,1645,30,30,18,yes,0,2019,1
267,fastrack,Leather and Travel,Luggage and Travel,backpack,NA,BOXER,A0737NBL01,46,31,22,31.372,regular,blue,42021290,1645,30,30,18,yes,0,2019,1
268,fastrack,Leather and Travel,Luggage and Travel,backpack,NA,BOXER,A0737NOL01,46,31,22,31.372,regular,olive,42021290,1645,30,30,18,yes,0,2019,1
269,fastrack,Leather and Travel,Luggage and Travel,backpack,NA,BOXER,A0737NBK01,46,31,22,31.372,regular,black,42021290,1645,30,30,18,yes,0,2019,1
270,fastrack,Leather and Travel,Luggage and Travel,backpack,NA,FIREFLY,A0755NBK01,46,31,22,31.372,regular,black,42021290,1895,30,30,18,yes,0,2019,1
271,fastrack,Leather and Travel,Luggage and Travel,backpack,NA,FIREFLY,A0755NBL01,46,31,22,31.372,regular,blue,42021290,1895,30,30,18,yes,0,2019,1
272,fastrack,Leather and Travel,Luggage and Travel,backpack,NA,FIREFLY,A0755NGR01,46,31,22,31.372,regular,green,42021290,1895,30,30,18,yes,0,2019,1
273,fastrack,Leather and Travel,Luggage and Travel,backpack,NA,BOB CAT,A0744NRD01,46,31,22,31.372,regular,red,42021290,1495,30,30,18,yes,0,2019,1
274,fastrack,Leather and Travel,Luggage and Travel,backpack,NA,BOB CAT,A0744NBL01,46,31,22,31.372,regular,blue,42021290,1495,30,30,18,yes,0,2019,1
275,fastrack,Leather and Travel,Luggage and Travel,backpack,NA,BOB CAT,A0744NGY01,46,31,22,31.372,regular,grey,42021290,1495,30,30,18,yes,0,2019,1
276,fastrack,Leather and Travel,Luggage and Travel,backpack,NA,FLASH,A0735NRD01,46,31,22,31.372,regular,red,42021290,1645,30,30,18,yes,0,2019,1
277,fastrack,Leather and Travel,Luggage and Travel,backpack,NA,FLASH,A0735NBL01,46,31,22,31.372,regular,blue,42021290,1645,30,30,18,yes,0,2019,1
278,fastrack,Leather and Travel,Luggage and Travel,backpack,NA,FLASH,A0735NGY01,46,31,22,31.372,regular,grey,42021290,1645,30,30,18,yes,0,2019,1
279,fastrack,Leather and Travel,Luggage and Travel,backpack,NA,SPLASH,A0750NRD01,46,31,22,31.372,regular,red,42021290,1985,30,30,18,yes,0,2019,1
280,fastrack,Leather and Travel,Luggage and Travel,backpack,NA,SPLASH,A0750NBL01,46,31,22,31.372,regular,blue,42021290,1895,30,30,18,yes,0,2019,1
281,fastrack,Leather and Travel,Luggage and Travel,backpack,NA,ROVER,A0743NBL01,46,31,22,31.372,regular,blue,42021290,2745,30,30,18,yes,0,2019,1
282,fastrack,Leather and Travel,Luggage and Travel,backpack,NA,MARINE,A0736NBL01,46,31,22,31.372,regular,blue,42021290,1895,30,30,18,yes,0,2019,1
283,fastrack,Leather and Travel,Luggage and Travel,backpack,NA,MARINE,A0736NBK01,46,31,22,31.372,regular,black,42021290,1895,30,30,18,yes,0,2019,1
284,fastrack,Leather and Travel,Luggage and Travel,backpack,NA,KILLER,A0739NBL01,46,31,22,31.372,regular,blue,42021290,1895,30,30,18,yes,0,2019,1
285,fastrack,Leather and Travel,Luggage and Travel,backpack,NA,KILLER,A0739NRD01,46,31,22,31.372,regular,red,42021290,1895,30,30,18,yes,0,2019,1
286,fastrack,Leather and Travel,Luggage and Travel,backpack,NA,KILLER,A0739NGY01,46,31,22,31.372,regular,grey,42021290,1895,30,30,18,yes,0,2019,1
287,fastrack,Leather and Travel,Luggage and Travel,backpack,NA,KILLER,A0739NBK01,46,31,22,31.372,regular,black,42021290,1895,30,30,18,yes,0,2019,1
288,fastrack,Leather and Travel,Luggage and Travel,backpack,NA,RACER,A0752NBL01,46,31,22,31.372,regular,blue,42021290,1895,30,30,18,yes,0,2019,1
289,fastrack,Leather and Travel,Luggage and Travel,backpack,NA,RACER,A0752NBL02,46,31,22,31.372,regular,blue,42021290,1895,30,30,18,yes,0,2019,1
290,fastrack,Leather and Travel,Luggage and Travel,backpack,NA,COMPACT,A0730NBL01,46,31,22,31.372,regular,blue,42021290,1895,30,30,18,yes,0,2019,1
291,fastrack,Leather and Travel,Luggage and Travel,backpack,NA,COMPACT,A0730NBL02,46,31,22,31.372,regular,blue,42021290,1895,30,30,18,yes,0,2019,1
292,fastrack,Leather and Travel,Luggage and Travel,backpack,NA,SLASH,A0733NGY01,46,31,22,31.372,regular,grey,42021290,1895,30,30,18,yes,0,2019,1
293,fastrack,Leather and Travel,Luggage and Travel,backpack,NA,SLASH,A0733NBL01,46,31,22,31.372,regular,blue,42021290,1895,30,30,18,yes,0,2019,1
294,fastrack,Leather and Travel,Luggage and Travel,backpack,NA,SLASH,A0733NBK01,46,31,22,31.372,regular,black,42021290,1895,30,30,18,yes,0,2019,1
295,Priority,Leather and Travel,Luggage and Travel,backpack,NA,clash,NA,46,31,22,31.372,regular,black,42021290,1480,30,30,18,yes,0,2019,1
296,Priority,Leather and Travel,Luggage and Travel,backpack,NA,pantagon,NA,46,31,22,31.372,regular,black,42021290,1175,30,30,18,yes,0,2019,1
297,Priority,Leather and Travel,Luggage and Travel,backpack,NA,frolic,NA,46,31,22,31.372,regular,black,42021290,1275,30,30,18,yes,0,2019,1
298,Priority,Leather and Travel,Luggage and Travel,backpack,NA,tack,NA,46,31,22,31.372,regular,black,42021290,1260,30,30,18,yes,0,2019,1
299,Priority,Leather and Travel,Luggage and Travel,backpack,NA,a uris,NA,46,31,22,31.372,regular,black,42021290,1205,30,30,18,yes,0,2019,1
300,Priority,Leather and Travel,Luggage and Travel,backpack,NA,delphie 007,NA,46,31,22,31.372,regular,black,42021290,815,30,30,18,yes,0,2019,1
301,Priority,Leather and Travel,Luggage and Travel,backpack,NA,delphie 004,NA,46,31,22,31.372,regular,black,42021290,900,30,30,18,yes,0,2019,1
302,Priority,Leather and Travel,Luggage and Travel,backpack,NA,alice 009,NA,46,31,22,31.372,regular,black,42021290,580,30,30,18,yes,0,2019,1
303,Priority,Leather and Travel,Luggage and Travel,backpack,NA,titan hd 023,NA,46,31,22,31.372,regular,black,42021290,1090,30,30,18,yes,0,2019,1
304,Priority,Leather and Travel,Luggage and Travel,backpack,NA,titan hd 020,NA,46,31,22,31.372,regular,black,42021290,1090,30,30,18,yes,0,2019,1
305,Priority,Leather and Travel,Luggage and Travel,backpack,NA,titan hd 019,NA,46,31,22,31.372,regular,black,42021290,1090,30,30,18,yes,0,2019,1
306,Priority,Leather and Travel,Luggage and Travel,backpack,NA,titan hd 025,NA,46,31,22,31.372,regular,black,42021290,1090,30,30,18,yes,0,2019,1
307,Priority,Leather and Travel,Luggage and Travel,backpack,NA,alice 007,NA,46,31,22,31.372,regular,black,42021290,815,30,30,18,yes,0,2019,1
308,Priority,Leather and Travel,Luggage and Travel,backpack,NA,alice 006,NA,46,31,22,31.372,regular,black,42021290,610,30,30,18,yes,0,2019,1
309,Priority,Leather and Travel,Luggage and Travel,backpack,NA,duffy hd 016,NA,46,31,22,31.372,regular,black,42021290,740,30,30,18,yes,0,2019,1
310,Priority,Leather and Travel,Luggage and Travel,backpack,NA,titan hd 003,NA,46,31,22,31.372,regular,black,42021290,665,30,30,18,yes,0,2019,1
311,Priority,Leather and Travel,Luggage and Travel,backpack,NA,titan hd 004,NA,46,31,22,31.372,regular,black,42021290,665,30,30,18,yes,0,2019,1
312,Priority,Leather and Travel,Luggage and Travel,backpack,NA,coral 025,NA,46,31,22,31.372,regular,black,42021290,885,30,30,18,yes,0,2019,1
313,Hashtag,Leather and Travel,Luggage and Travel,backpack,NA,1803,1803,46,31,22,31.372,regular,black,42021290,2099,30,30,18,yes,0,2019,1
314,Priority,Leather and Travel,Luggage and Travel,backpack,NA,aeon,NA,46,31,22,31.372,regular,black,42021290,1235,30,30,18,yes,0,2019,1